{
    "pt_minimum": 500,
    "abs_eta_maximum": 3,
    "d0_maximum": 300,
    "z0_maximum": 300,
    "si_hits_minimum": 7,
    "si_shared_maximum": 99,
    "si_holes_maximum": 99,
    "pix_holes_maximum": 99
}
