{
    "uchars": [
        "numberOfInnermostPixelLayerHits",
        "numberOfNextToInnermostPixelLayerHits",
        "numberOfPixelHits",
        "numberOfSCTHits",
        "numberOfPixelHoles",
        "numberOfSCTHoles"

    ],
    "halves": [
        "chiSquared",
        "numberDoF",
        "radiusOfFirstHit"
    ],
    "floats": [
        "qOverP"
    ],
    "customs": [
        "pt",
        "ptfrac",
        "qOverPUncertainty"
    ],
    "half_precision_customs": [
        "d0",
        "z0SinTheta",
        "d0Uncertainty",
        "z0SinThetaUncertainty",
        "IP2D_signed_d0",
        "lifetimeSignedD0",
        "lifetimeSignedZ0SinTheta",
        "lifetimeSignedD0Significance",
        "lifetimeSignedZ0SinThetaSignificance",
        "deta",
        "dphi",
        "phiUncertainty",
        "thetaUncertainty",
        "dr",
        "z0RelativeToBeamspot",
        "z0RelativeToBeamspotUncertainty"
    ]
}
